^D:\GE2A24\SHARDER\SAMPLE\DEBUG\CAMERA.OBJ|D:\GE2A24\SHARDER\SAMPLE\DEBUG\FBX.OBJ|D:\GE2A24\SHARDER\SAMPLE\DEBUG\GAME.OBJ|D:\GE2A24\SHARDER\SAMPLE\DEBUG\GLOBAL.OBJ|D:\GE2A24\SHARDER\SAMPLE\DEBUG\INPUT.OBJ|D:\GE2A24\SHARDER\SAMPLE\DEBUG\LABEL.OBJ|D:\GE2A24\SHARDER\SAMPLE\DEBUG\LIGHT.OBJ|D:\GE2A24\SHARDER\SAMPLE\DEBUG\MYRECT.OBJ|D:\GE2A24\SHARDER\SAMPLE\DEBUG\NODE.OBJ|D:\GE2A24\SHARDER\SAMPLE\DEBUG\PLAYSCENE.OBJ|D:\GE2A24\SHARDER\SAMPLE\DEBUG\QUAD.OBJ|D:\GE2A24\SHARDER\SAMPLE\DEBUG\SAMPLEGAME.OBJ|D:\GE2A24\SHARDER\SAMPLE\DEBUG\SCENE.OBJ|D:\GE2A24\SHARDER\SAMPLE\DEBUG\SPRITE.OBJ
C:\WINDOWS\GLOBALIZATION\SORTING\SORTDEFAULT.NLS
C:\PROGRAM FILES (X86)\WINDOWS KITS\8.1\LIB\WINV6.3\UM\X86\KERNEL32.LIB
C:\PROGRAM FILES (X86)\WINDOWS KITS\8.1\LIB\WINV6.3\UM\X86\USER32.LIB
C:\PROGRAM FILES (X86)\WINDOWS KITS\8.1\LIB\WINV6.3\UM\X86\GDI32.LIB
C:\PROGRAM FILES (X86)\WINDOWS KITS\8.1\LIB\WINV6.3\UM\X86\WINSPOOL.LIB
C:\PROGRAM FILES (X86)\WINDOWS KITS\8.1\LIB\WINV6.3\UM\X86\COMDLG32.LIB
C:\PROGRAM FILES (X86)\WINDOWS KITS\8.1\LIB\WINV6.3\UM\X86\ADVAPI32.LIB
C:\PROGRAM FILES (X86)\WINDOWS KITS\8.1\LIB\WINV6.3\UM\X86\SHELL32.LIB
C:\PROGRAM FILES (X86)\WINDOWS KITS\8.1\LIB\WINV6.3\UM\X86\OLE32.LIB
C:\PROGRAM FILES (X86)\WINDOWS KITS\8.1\LIB\WINV6.3\UM\X86\OLEAUT32.LIB
C:\PROGRAM FILES (X86)\WINDOWS KITS\8.1\LIB\WINV6.3\UM\X86\UUID.LIB
C:\PROGRAM FILES (X86)\WINDOWS KITS\8.1\LIB\WINV6.3\UM\X86\ODBC32.LIB
C:\PROGRAM FILES (X86)\WINDOWS KITS\8.1\LIB\WINV6.3\UM\X86\ODBCCP32.LIB
D:\GE2A24\SHARDER\SAMPLE\DEBUG\CAMERA.OBJ
D:\GE2A24\SHARDER\SAMPLE\DEBUG\FBX.OBJ
D:\GE2A24\SHARDER\SAMPLE\DEBUG\GAME.OBJ
D:\GE2A24\SHARDER\SAMPLE\DEBUG\GLOBAL.OBJ
D:\GE2A24\SHARDER\SAMPLE\DEBUG\INPUT.OBJ
D:\GE2A24\SHARDER\SAMPLE\DEBUG\LABEL.OBJ
D:\GE2A24\SHARDER\SAMPLE\DEBUG\LIGHT.OBJ
D:\GE2A24\SHARDER\SAMPLE\DEBUG\MYRECT.OBJ
D:\GE2A24\SHARDER\SAMPLE\DEBUG\NODE.OBJ
D:\GE2A24\SHARDER\SAMPLE\DEBUG\QUAD.OBJ
D:\GE2A24\SHARDER\SAMPLE\DEBUG\SAMPLEGAME.OBJ
D:\GE2A24\SHARDER\SAMPLE\DEBUG\SCENE.OBJ
D:\GE2A24\SHARDER\SAMPLE\DEBUG\SPRITE.OBJ
D:\GE2A24\SHARDER\SAMPLE\DEBUG\PLAYSCENE.OBJ
C:\PROGRAM FILES (X86)\MICROSOFT DIRECTX SDK (JUNE 2010)\LIB\X86\DXGUID.LIB
C:\PROGRAM FILES (X86)\MICROSOFT DIRECTX SDK (JUNE 2010)\LIB\X86\DINPUT8.LIB
C:\PROGRAM FILES (X86)\MICROSOFT DIRECTX SDK (JUNE 2010)\LIB\X86\XINPUT.LIB
C:\PROGRAM FILES (X86)\MICROSOFT VISUAL STUDIO 12.0\VC\LIB\LIBCMTD.LIB
C:\PROGRAM FILES (X86)\MICROSOFT VISUAL STUDIO 12.0\VC\LIB\OLDNAMES.LIB
C:\PROGRAM FILES (X86)\MICROSOFT VISUAL STUDIO 12.0\VC\LIB\LIBCPMTD.LIB
C:\PROGRAM FILES\AUTODESK\FBX\FBX SDK\2015.1\LIB\VS2013\X86\DEBUG\LIBFBXSDK-MT.LIB
C:\PROGRAM FILES (X86)\MICROSOFT DIRECTX SDK (JUNE 2010)\LIB\X86\D3D9.LIB
C:\PROGRAM FILES (X86)\MICROSOFT DIRECTX SDK (JUNE 2010)\LIB\X86\D3DX9.LIB
C:\PROGRAM FILES (X86)\WINDOWS KITS\8.1\BIN\X86\RC.EXE
C:\PROGRAM FILES (X86)\MICROSOFT VISUAL STUDIO 12.0\VC\BIN\CVTRES.EXE
C:\WINDOWS\SYSTEM32\TZRES.DLL
C:\WINDOWS\SYSTEM32\RSAENH.DLL
