^LambertShader.hlsl
D:\GE2A24\sharder\Sample\Debug\LambertShader.cso
^LambertShader.hlsl
D:\GE2A24\sharder\Sample\Debug\LambertShader.cso
^LambertShader.hlsl
D:\GE2A24\sharder\Sample\Debug\LambertShader.cso
^LambertShader.hlsl
D:\GE2A24\sharder\Sample\Debug\LambertShader.cso
^LambertShader.hlsl
D:\GE2A24\sharder\Sample\Debug\LambertShader.cso
^LambertShader.hlsl
D:\GE2A24\sharder\Sample\Debug\LambertShader.cso
^LambertShader.hlsl
D:\GE2A24\sharder\Sample\Debug\LambertShader.cso
^LambertShader.hlsl
D:\GE2A24\sharder\Sample\Debug\LambertShader.cso
^LambertShader.hlsl
^PhongShader.hlsl
D:\GE2A24\sharder\Sample\Debug\LambertShader.cso
D:\GE2A24\sharder\Sample\Debug\PhongShader.cso
^LambertShader.hlsl
^PhongShader.hlsl
D:\GE2A24\sharder\Sample\Debug\LambertShader.cso
D:\GE2A24\sharder\Sample\Debug\PhongShader.cso
^LambertShader.hlsl
^PhongShader.hlsl
D:\GE2A24\sharder\Sample\Debug\LambertShader.cso
D:\GE2A24\sharder\Sample\Debug\PhongShader.cso
^LambertShader.hlsl
^PhongShader.hlsl
D:\GE2A24\sharder\Sample\Debug\LambertShader.cso
D:\GE2A24\sharder\Sample\Debug\PhongShader.cso
^LambertShader.hlsl
^PhongShader.hlsl
D:\GE2A24\sharder\Sample\Debug\LambertShader.cso
D:\GE2A24\sharder\Sample\Debug\PhongShader.cso
^LambertShader.hlsl
^PhongShader.hlsl
D:\GE2A24\sharder\Sample\Debug\LambertShader.cso
D:\GE2A24\sharder\Sample\Debug\PhongShader.cso
^LambertShader.hlsl
^PhongShader.hlsl
D:\GE2A24\sharder\Sample\Debug\LambertShader.cso
D:\GE2A24\sharder\Sample\Debug\PhongShader.cso
^LambertShader.hlsl
^PhongShader.hlsl
D:\GE2A24\sharder\Sample\Debug\LambertShader.cso
D:\GE2A24\sharder\Sample\Debug\PhongShader.cso
^LambertShader.hlsl
^PhongShader.hlsl
D:\GE2A24\sharder\Sample\Debug\LambertShader.cso
D:\GE2A24\sharder\Sample\Debug\PhongShader.cso
^LambertShader.hlsl
^PhongShader.hlsl
D:\GE2A24\sharder\Sample\Debug\LambertShader.cso
D:\GE2A24\sharder\Sample\Debug\PhongShader.cso
^LambertShader.hlsl
^PhongShader.hlsl
D:\GE2A24\sharder\Sample\Debug\LambertShader.cso
D:\GE2A24\sharder\Sample\Debug\PhongShader.cso
^LambertShader.hlsl
^PhongShader.hlsl
D:\GE2A24\sharder\Sample\Debug\LambertShader.cso
D:\GE2A24\sharder\Sample\Debug\PhongShader.cso
^LambertShader.hlsl
^PhongShader.hlsl
D:\GE2A24\sharder\Sample\Debug\LambertShader.cso
D:\GE2A24\sharder\Sample\Debug\PhongShader.cso
^LambertShader.hlsl
^PhongShader.hlsl
D:\GE2A24\sharder\Sample\Debug\LambertShader.cso
D:\GE2A24\sharder\Sample\Debug\PhongShader.cso
^LambertShader.hlsl
^PhongShader.hlsl
D:\GE2A24\sharder\Sample\Debug\LambertShader.cso
D:\GE2A24\sharder\Sample\Debug\PhongShader.cso
^LambertShader.hlsl
^PhongShader.hlsl
D:\GE2A24\sharder\Sample\Debug\LambertShader.cso
D:\GE2A24\sharder\Sample\Debug\PhongShader.cso
^LambertShader.hlsl
^PhongShader.hlsl
D:\GE2A24\sharder\Sample\Debug\LambertShader.cso
D:\GE2A24\sharder\Sample\Debug\PhongShader.cso
^LambertShader.hlsl
^PhongShader.hlsl
D:\GE2A24\sharder\Sample\Debug\LambertShader.cso
D:\GE2A24\sharder\Sample\Debug\PhongShader.cso
^LambertShader.hlsl
^PhongShader.hlsl
D:\GE2A24\sharder\Sample\Debug\LambertShader.cso
D:\GE2A24\sharder\Sample\Debug\PhongShader.cso
^LambertShader.hlsl
^PhongShader.hlsl
D:\GE2A24\sharder\Sample\Debug\LambertShader.cso
D:\GE2A24\sharder\Sample\Debug\PhongShader.cso
^LambertShader.hlsl
^PhongShader.hlsl
D:\GE2A24\sharder\Sample\Debug\LambertShader.cso
D:\GE2A24\sharder\Sample\Debug\PhongShader.cso
^LambertShader.hlsl
^PhongShader.hlsl
D:\GE2A24\sharder\Sample\Debug\LambertShader.cso
D:\GE2A24\sharder\Sample\Debug\PhongShader.cso
^LambertShader.hlsl
^PhongShader.hlsl
D:\GE2A24\sharder\Sample\Debug\LambertShader.cso
D:\GE2A24\sharder\Sample\Debug\PhongShader.cso
^LambertShader.hlsl
^PhongShader.hlsl
D:\GE2A24\sharder\Sample\Debug\LambertShader.cso
D:\GE2A24\sharder\Sample\Debug\PhongShader.cso
^LambertShader.hlsl
^PhongShader.hlsl
D:\GE2A24\sharder\Sample\Debug\LambertShader.cso
D:\GE2A24\sharder\Sample\Debug\PhongShader.cso
^LambertShader.hlsl
^PhongShader.hlsl
D:\GE2A24\sharder\Sample\Debug\LambertShader.cso
D:\GE2A24\sharder\Sample\Debug\PhongShader.cso
^LambertShader.hlsl
^PhongShader.hlsl
D:\GE2A24\sharder\Sample\Debug\LambertShader.cso
D:\GE2A24\sharder\Sample\Debug\PhongShader.cso
^LambertShader.hlsl
^PhongShader.hlsl
D:\GE2A24\sharder\Sample\Debug\LambertShader.cso
D:\GE2A24\sharder\Sample\Debug\PhongShader.cso
^LambertShader.hlsl
^PhongShader.hlsl
D:\GE2A24\sharder\Sample\Debug\LambertShader.cso
D:\GE2A24\sharder\Sample\Debug\PhongShader.cso
^LambertShader.hlsl
^PhongShader.hlsl
D:\GE2A24\sharder\Sample\Debug\LambertShader.cso
D:\GE2A24\sharder\Sample\Debug\PhongShader.cso
^LambertShader.hlsl
^PhongShader.hlsl
D:\GE2A24\sharder\Sample\Debug\LambertShader.cso
D:\GE2A24\sharder\Sample\Debug\PhongShader.cso
^LambertShader.hlsl
^PhongShader.hlsl
D:\GE2A24\sharder\Sample\Debug\LambertShader.cso
D:\GE2A24\sharder\Sample\Debug\PhongShader.cso
^LambertShader.hlsl
^PhongShader.hlsl
D:\GE2A24\sharder\Sample\Debug\LambertShader.cso
D:\GE2A24\sharder\Sample\Debug\PhongShader.cso
^LambertShader.hlsl
^PhongShader.hlsl
D:\GE2A24\sharder\Sample\Debug\LambertShader.cso
D:\GE2A24\sharder\Sample\Debug\PhongShader.cso
^LambertShader.hlsl
^PhongShader.hlsl
D:\GE2A24\sharder\Sample\Debug\LambertShader.cso
D:\GE2A24\sharder\Sample\Debug\PhongShader.cso
^LambertShader.hlsl
^PhongShader.hlsl
^TextureShader.hlsl
D:\GE2A24\sharder\Sample\Debug\LambertShader.cso
D:\GE2A24\sharder\Sample\Debug\PhongShader.cso
D:\GE2A24\sharder\Sample\Debug\TextureShader.cso
^LambertShader.hlsl
^PhongShader.hlsl
^TextureShader.hlsl
D:\GE2A24\sharder\Sample\Debug\LambertShader.cso
D:\GE2A24\sharder\Sample\Debug\PhongShader.cso
D:\GE2A24\sharder\Sample\Debug\TextureShader.cso
^LambertShader.hlsl
^PhongShader.hlsl
^TextureShader.hlsl
D:\GE2A24\sharder\Sample\Debug\LambertShader.cso
D:\GE2A24\sharder\Sample\Debug\PhongShader.cso
D:\GE2A24\sharder\Sample\Debug\TextureShader.cso
^LambertShader.hlsl
^PhongShader.hlsl
^TextureShader.hlsl
D:\GE2A24\sharder\Sample\Debug\LambertShader.cso
D:\GE2A24\sharder\Sample\Debug\PhongShader.cso
D:\GE2A24\sharder\Sample\Debug\TextureShader.cso
^LambertShader.hlsl
^PhongShader.hlsl
^TextureShader.hlsl
D:\GE2A24\sharder\Sample\Debug\LambertShader.cso
D:\GE2A24\sharder\Sample\Debug\PhongShader.cso
D:\GE2A24\sharder\Sample\Debug\TextureShader.cso
^LambertShader.hlsl
^PhongShader.hlsl
^TextureShader.hlsl
D:\GE2A24\sharder\Sample\Debug\LambertShader.cso
D:\GE2A24\sharder\Sample\Debug\PhongShader.cso
D:\GE2A24\sharder\Sample\Debug\TextureShader.cso
^LambertShader.hlsl
^PhongShader.hlsl
^TextureShader.hlsl
D:\GE2A24\sharder\Sample\Debug\LambertShader.cso
D:\GE2A24\sharder\Sample\Debug\PhongShader.cso
D:\GE2A24\sharder\Sample\Debug\TextureShader.cso
